{
  "000000": {
    "Name": "Black",
    "Index": 0,
    "Red": 0,
    "Green": 0,
    "Blue": 0
  },
  "0000AA": {
    "Name": "Blue",
    "Index": 1,
    "Red": 0,
    "Green": 0,
    "Blue": 170
  },
  "00AA00": {
    "Name": "Green",
    "Index": 2,
    "Red": 0,
    "Green": 170,
    "Blue": 0
  },
  "00AAAA": {
    "Name": "Cyan",
    "Index": 3,
    "Red": 0,
    "Green": 170,
    "Blue": 170
  },
  "AA0000": {
    "Name": "Red",
    "Index": 4,
    "Red": 170,
    "Green": 0,
    "Blue": 0
  },
  "AA00AA": {
    "Name": "Magenta",
    "Index": 5,
    "Red": 170,
    "Green": 0,
    "Blue": 170
  },
  "AA5500": {
    "Name": "Brown",
    "Index": 6,
    "Red": 170,
    "Green": 85,
    "Blue": 0
  },
  "AAAA00": {
    "Name": "Yellow",
    "Index": 6,
    "Red": 170,
    "Green": 170,
    "Blue": 0
  },
  "AAAAAA": {
    "Name": "White",
    "Index": 7,
    "Red": 170,
    "Green": 170,
    "Blue": 170
  },

  "555555": {
    "Name": "Bright Black",
    "Index": 8,
    "Red": 85,
    "Green": 85,
    "Blue": 85
  },
  "5555FF": {
    "Name": "Bright Blue",
    "Index": 9,
    "Red": 85,
    "Green": 85,
    "Blue": 255
  },
  "55FF55": {
    "Name": "Bright Green",
    "Index": 10,
    "Red": 85,
    "Green": 255,
    "Blue": 85
  },
  "55FFFF": {
    "Name": "Bright Cyan",
    "Index": 11,
    "Red": 85,
    "Green": 255,
    "Blue": 255
  },
  "FF5555": {
    "Name": "Bright Red",
    "Index": 12,
    "Red": 255,
    "Green": 85,
    "Blue": 85
  },
  "FF55FF": {
    "Name": "Bright Magenta",
    "Index": 13,
    "Red": 255,
    "Green": 85,
    "Blue": 255
  },
  "FFFF55": {
    "Name": "Bright Yellow",
    "Index": 14,
    "Red": 255,
    "Green": 255,
    "Blue": 85
  },
  "FFFFFF": {
    "Name": "Bright White",
    "Index": 15,
    "Red": 255,
    "Green": 255,
    "Blue": 255
  }
}